{
  "news":
  [
    {
      "category": "MA",
      "snippet": "Lifing acquires students profiling software Explo for an undisclosed sum.",
      "newsdate": "latest"
    },
    {
      "category": "Country Expansion",
      "snippet": "Twitter to setup a new development office in Bengaluru, India.",
      "newsdate": "latest"
    },
    {
      "category": "MA",
      "snippet": "Microsoft acquires LinkedIn for 26 Billion.",
      "newsdate": "latest"
    },
    {
      "category": "Product Launch",
      "snippet": "Facebook launches V2 of Oculus VR.",
      "newsdate": "latest"
    },
    {
      "category": "Product Launch",
      "snippet": "Syzygy launches Artistro for fine arts students.",
      "newsdate": "past"
    },
    {
      "category": "Funding",
      "snippet": "Google funds the idea of its innovation challenge winners by 100,000.",
      "newsdate": "latest"
    },
    {
      "category": "MA",
      "snippet": "Oracle acquires Apiary for an undisclosed sum in an all cash deal.",
      "newsdate": "past"
    },
    {
      "category": "Funding",
      "snippet": "Parenting app Winnie raises 1.5 Million from Sequioia Capital.",
      "newsdate": "past"
    },
    {
      "category": "Funding",
      "snippet": "Simplilearn gets 10 Million funding from Kalari Capital.",
      "newsdate": "past"
    },
    {
      "category": "University",
      "snippet": "NIT Karnataka introduces new department for Architecture discipline, 50 students initial batch.",
      "newsdate": "past"
    },
    {
      "category": "Product Launch",
      "snippet": "Urban Frame partners with Singapore based Blink to kickstart a hospitality vertical.",
      "newsdate": "past"
    },
    {
      "category": "Country Expansion",
      "snippet": "Twitter to setup a new development office in Bengaluru, India.",
      "newsdate": "latest"
    },
    {
      "category": "MA",
      "snippet": "Microsoft acquires LinkedIn for 26 Billion.",
      "newsdate": "latest"
    },
    {
      "category": "Product Launch",
      "snippet": "Facebook launches V2 of Oculus VR.",
      "newsdate": "latest"
    },
    {
      "category": "Product Launch",
      "snippet": "Syzygy launches Artistro for fine arts students.",
      "newsdate": "past"
    },
    {
      "category": "Funding",
      "snippet": "Google funds the idea of its innovation challenge winners by 100,000.",
      "newsdate": "latest"
    },
    {
      "category": "MA",
      "snippet": "Oracle acquires Apiary for an undisclosed sum in an all cash deal.",
      "newsdate": "past"
    },
    {
      "category": "Funding",
      "snippet": "Parenting app Winnie raises 1.5 Million from Sequioia Capital.",
      "newsdate": "past"
    },
    {
      "category": "Funding",
      "snippet": "Simplilearn gets 10 Million funding from Kalari Capital.",
      "newsdate": "past"
    },
    {
      "category": "University",
      "snippet": "NIT Karnataka introduces new department for Architecture discipline, 50 students initial batch.",
      "newsdate": "past"
    },
    {
      "category": "Product Launch",
      "snippet": "Urban Frame partners with Singapore based Blink to kickstart a hospitality vertical.",
      "newsdate": "past"
    },
    {
      "category": "Country Expansion",
      "snippet": "Twitter to setup a new development office in Bengaluru, India.",
      "newsdate": "latest"
    },
    {
      "category": "MA",
      "snippet": "Microsoft acquires LinkedIn for 26 Billion.",
      "newsdate": "latest"
    },
    {
      "category": "Product Launch",
      "snippet": "Facebook launches V2 of Oculus VR.",
      "newsdate": "latest"
    },
    {
      "category": "Product Launch",
      "snippet": "Syzygy launches Artistro for fine arts students.",
      "newsdate": "past"
    },
    {
      "category": "Funding",
      "snippet": "Google funds the idea of its innovation challenge winners by 100,000.",
      "newsdate": "latest"
    },
    {
      "category": "MA",
      "snippet": "Oracle acquires Apiary for an undisclosed sum in an all cash deal.",
      "newsdate": "past"
    },
    {
      "category": "Funding",
      "snippet": "Parenting app Winnie raises 1.5 Million from Sequioia Capital.",
      "newsdate": "past"
    },
    {
      "category": "Funding",
      "snippet": "Simplilearn gets 10 Million funding from Kalari Capital.",
      "newsdate": "past"
    },
    {
      "category": "University",
      "snippet": "NIT Karnataka introduces new department for Architecture discipline, 50 students initial batch.",
      "newsdate": "past"
    },
    {
      "category": "Product Launch",
      "snippet": "Urban Frame partners with Singapore based Blink to kickstart a hospitality vertical.",
      "newsdate": "past"
    },
    {
      "category": "Country Expansion",
      "snippet": "Twitter to setup a new development office in Bengaluru, India.",
      "newsdate": "latest"
    },
    {
      "category": "MA",
      "snippet": "Microsoft acquires LinkedIn for 26 Billion.",
      "newsdate": "latest"
    },
    {
      "category": "Product Launch",
      "snippet": "Facebook launches V2 of Oculus VR.",
      "newsdate": "latest"
    },
    {
      "category": "Product Launch",
      "snippet": "Syzygy launches Artistro for fine arts students.",
      "newsdate": "past"
    },
    {
      "category": "Funding",
      "snippet": "Google funds the idea of its innovation challenge winners by 100,000.",
      "newsdate": "latest"
    },
    {
      "category": "MA",
      "snippet": "Oracle acquires Apiary for an undisclosed sum in an all cash deal.",
      "newsdate": "past"
    },
    {
      "category": "Funding",
      "snippet": "Parenting app Winnie raises 1.5 Million from Sequioia Capital.",
      "newsdate": "past"
    },
    {
      "category": "Funding",
      "snippet": "Simplilearn gets 10 Million funding from Kalari Capital.",
      "newsdate": "past"
    },
    {
      "category": "University",
      "snippet": "NIT Karnataka introduces new department for Architecture discipline, 50 students initial batch.",
      "newsdate": "past"
    },
    {
      "category": "Product Launch",
      "snippet": "Urban Frame partners with Singapore based Blink to kickstart a hospitality vertical.",
      "newsdate": "past"
    }
  ]
}
